1 --> line --> 1
2 --> line --> 2
3 --> line --> 3
=====================================================================
=====================================================================
:):):)
=====================================================================
=====================================================================
